src/ch7/section7.1/7.1.1/sim/top_tb.vcd
$date
    Apr 22, 2024  20:18:16
$end
$version
    TOOL:	ncsim(64)	15.20-p001
$end
$timescale
    1 ps
$end

$scope module top_tb $end
$var reg       1 !    clk  $end
$var reg       1 "    rst_n  $end
$var reg       8 #    rxd [7:0] $end
$var reg       1 $    rx_dv  $end
$var wire      8 %    txd [7:0] $end
$var wire      1 &    tx_en  $end

$scope module input_if $end
$var wire      1 '    clk  $end
$var wire      1 (    rst_n  $end
$var reg       8 )    data [7:0] $end
$var reg       1 *    valid  $end
$upscope $end


$scope module output_if $end
$var wire      1 +    clk  $end
$var wire      1 ,    rst_n  $end
$var reg       8 -    data [7:0] $end
$var reg       1 .    valid  $end
$upscope $end


$scope module b_if $end
$var wire      1 /    clk  $end
$var wire      1 0    rst_n  $end
$var reg       1 1    bus_cmd_valid  $end
$var reg       1 2    bus_op  $end
$var reg      16 3    bus_addr [15:0] $end
$var reg      16 4    bus_wr_data [15:0] $end
$var reg      16 5    bus_rd_data [15:0] $end
$upscope $end


$scope module my_dut $end
$var wire      1 6    clk  $end
$var wire      1 7    rst_n  $end
$var wire      1 8    bus_cmd_valid  $end
$var wire      1 9    bus_op  $end
$var wire     16 :    bus_addr [15:0] $end
$var wire     16 ;    bus_wr_data [15:0] $end
$var reg      16 <    bus_rd_data [15:0] $end
$var wire      8 =    rxd [7:0] $end
$var wire      1 >    rx_dv  $end
$var reg       8 ?    txd [7:0] $end
$var reg       1 @    tx_en  $end
$var reg       1 A    invert  $end
$upscope $end

$upscope $end

$enddefinitions $end
$dumpvars
0!
0"
bx #
x$
bz %
z&
0'
0(
b0 )
0*
0+
0,
bx -
x.
0/
00
01
02
b0 3
b0 4
bx 5
06
07
08
09
b0 :
b0 ;
bx <
b0 =
0>
bx ?
x@
xA
$end
#100000
1!
16
1/
1+
1'
b0 ?
0@
b0 <
0A
b0 5
0.
b0 -
#200000
0!
06
0/
0+
0'
#300000
1!
16
1/
1+
1'
#400000
0!
06
0/
0+
0'
#500000
1!
16
1/
1+
1'
#600000
0!
06
0/
0+
0'
#700000
1!
16
1/
1+
1'
#800000
0!
06
0/
0+
0'
#900000
1!
16
1/
1+
1'
#1000000
1"
0!
06
0/
0+
0'
17
10
1,
1(
#1100000
1!
16
1/
1+
1'
#1200000
0!
06
0/
0+
0'
#1300000
1!
16
1/
1+
1'
b1001 3
b1001 :
11
18
#1400000
0!
06
0/
0+
0'
#1500000
1!
16
1/
1+
1'
01
b0 3
b0 :
08
#1600000
0!
06
0/
0+
0'
#1700000
1!
16
1/
1+
1'
#1800000
0!
06
0/
0+
0'
#1900000
1!
16
1/
1+
1'
b1001 3
b1001 :
11
12
b1 4
b1 ;
19
18
#2000000
0!
06
0/
0+
0'
#2100000
1!
16
1/
1+
1'
1A
01
02
b0 3
b0 4
b0 ;
b0 :
09
08
#2200000
0!
06
0/
0+
0'
#2300000
1!
16
1/
1+
1'
b11111111 ?
b11111111 -
#2400000
0!
06
0/
0+
0'
#2500000
1!
16
1/
1+
1'
b1001 3
b1001 :
11
18
#2600000
0!
06
0/
0+
0'
#2700000
1!
16
1/
1+
1'
b1 <
01
b0 3
b0 :
08
b1 5
#2800000
0!
06
0/
0+
0'
#2900000
1!
16
1/
1+
1'
#3000000
0!
06
0/
0+
0'
#3100000
1!
16
1/
1+
1'
b1001 3
b1001 :
11
12
19
18
#3200000
0!
06
0/
0+
0'
#3300000
1!
16
1/
1+
1'
0A
01
02
b0 3
b0 :
09
08
#3400000
0!
06
0/
0+
0'
#3500000
1!
16
1/
1+
1'
b0 ?
b0 -
#3600000
0!
06
0/
0+
0'
#3700000
1!
16
1/
1+
1'
b1001 3
b1001 :
11
18
#3800000
0!
06
0/
0+
0'
#3900000
1!
16
1/
1+
1'
b0 <
01
b0 3
b0 :
08
b0 5
#4000000
0!
06
0/
0+
0'
#4100000
1!
16
1/
1+
1'
#4200000
0!
06
0/
0+
0'
#4300000
1!
16
1/
1+
1'
#4400000
0!
06
0/
0+
0'
#4500000
1!
16
1/
1+
1'
#4600000
0!
06
0/
0+
0'
#4700000
1!
16
1/
1+
1'
#4800000
0!
06
0/
0+
0'
#4900000
1!
16
1/
1+
1'
1*
b1100101 )
b1100101 =
1>
#5000000
0!
06
0/
0+
0'
#5100000
1!
16
1/
1+
1'
b1100101 ?
1@
b11011010 )
b11011010 =
1.
b1100101 -
#5200000
0!
06
0/
0+
0'
#5300000
1!
16
1/
1+
1'
b11011010 ?
b1101010 )
b1101010 =
b11011010 -
#5400000
0!
06
0/
0+
0'
#5500000
1!
16
1/
1+
1'
b1101010 ?
b10001011 )
b10001011 =
b1101010 -
#5600000
0!
06
0/
0+
0'
#5700000
1!
16
1/
1+
1'
b10001011 ?
b1010 )
b1010 =
b10001011 -
#5800000
0!
06
0/
0+
0'
#5900000
1!
16
1/
1+
1'
b1010 ?
b1000 )
b1000 =
b1010 -
#6000000
0!
06
0/
0+
0'
#6100000
1!
16
1/
1+
1'
b1000 ?
b10101111 )
b10101111 =
b1000 -
#6200000
0!
06
0/
0+
0'
#6300000
1!
16
1/
1+
1'
b10101111 ?
b10111 )
b10111 =
b10101111 -
#6400000
0!
06
0/
0+
0'
#6500000
1!
16
1/
1+
1'
b10111 ?
b1111110 )
b1111110 =
b10111 -
#6600000
0!
06
0/
0+
0'
#6700000
1!
16
1/
1+
1'
b1111110 ?
b10010100 )
b10010100 =
b1111110 -
#6800000
0!
06
0/
0+
0'
#6900000
1!
16
1/
1+
1'
b10010100 ?
b1011100 )
b1011100 =
b10010100 -
#7000000
0!
06
0/
0+
0'
#7100000
1!
16
1/
1+
1'
b1011100 ?
b10101011 )
b10101011 =
b1011100 -
#7200000
0!
06
0/
0+
0'
#7300000
1!
16
1/
1+
1'
b10101011 ?
b11010110 )
b11010110 =
b10101011 -
#7400000
0!
06
0/
0+
0'
#7500000
1!
16
1/
1+
1'
b11010110 ?
b1011001 )
b1011001 =
b11010110 -
#7600000
0!
06
0/
0+
0'
#7700000
1!
16
1/
1+
1'
b1011001 ?
b11100001 )
b11100001 =
b1011001 -
#7800000
0!
06
0/
0+
0'
#7900000
1!
16
1/
1+
1'
b11100001 ?
b101110 )
b101110 =
b11100001 -
#8000000
0!
06
0/
0+
0'
#8100000
1!
16
1/
1+
1'
b101110 ?
b111001 )
b111001 =
b101110 -
#8200000
0!
06
0/
0+
0'
#8300000
1!
16
1/
1+
1'
b111001 ?
b11101000 )
b11101000 =
b111001 -
#8400000
0!
06
0/
0+
0'
#8500000
1!
16
1/
1+
1'
b11101000 ?
b11110010 )
b11110010 =
b11101000 -
#8600000
0!
06
0/
0+
0'
#8700000
1!
16
1/
1+
1'
b11110010 ?
b11010100 )
b11010100 =
b11110010 -
#8800000
0!
06
0/
0+
0'
#8900000
1!
16
1/
1+
1'
b11010100 ?
b1100100 )
b1100100 =
b11010100 -
#9000000
0!
06
0/
0+
0'
#9100000
1!
16
1/
1+
1'
b1100100 ?
b1111011 )
b1111011 =
b1100100 -
#9200000
0!
06
0/
0+
0'
#9300000
1!
16
1/
1+
1'
b1111011 ?
b1011 )
b1011 =
b1111011 -
#9400000
0!
06
0/
0+
0'
#9500000
1!
16
1/
1+
1'
b1011 ?
b10000110 )
b10000110 =
b1011 -
#9600000
0!
06
0/
0+
0'
#9700000
1!
16
1/
1+
1'
b10000110 ?
b11101 )
b11101 =
b10000110 -
#9800000
0!
06
0/
0+
0'
#9900000
1!
16
1/
1+
1'
b11101 ?
b11110 )
b11110 =
b11101 -
#10000000
0!
06
0/
0+
0'
#10100000
1!
16
1/
1+
1'
b11110 ?
b11010111 )
b11010111 =
b11110 -
#10200000
0!
06
0/
0+
0'
#10300000
1!
16
1/
1+
1'
b11010111 ?
b11111111 )
b11111111 =
b11010111 -
#10400000
0!
06
0/
0+
0'
#10500000
1!
16
1/
1+
1'
b11111111 ?
b10100 )
b10100 =
b11111111 -
#10600000
0!
06
0/
0+
0'
#10700000
1!
16
1/
1+
1'
b10100 ?
b111101 )
b111101 =
b10100 -
#10800000
0!
06
0/
0+
0'
#10900000
1!
16
1/
1+
1'
b111101 ?
b1111 )
b1111 =
b111101 -
#11000000
0!
06
0/
0+
0'
#11100000
1!
16
1/
1+
1'
b1111 ?
b10001101 )
b10001101 =
b1111 -
#11200000
0!
06
0/
0+
0'
#11300000
1!
16
1/
1+
1'
b10001101 ?
b10101 )
b10101 =
b10001101 -
#11400000
0!
06
0/
0+
0'
#11500000
1!
16
1/
1+
1'
b10101 ?
b1000010 )
b1000010 =
b10101 -
#11600000
0!
06
0/
0+
0'
#11700000
1!
16
1/
1+
1'
b1000010 ?
b10111000 )
b10111000 =
b1000010 -
#11800000
0!
06
0/
0+
0'
#11900000
1!
16
1/
1+
1'
b10111000 ?
b11001100 )
b11001100 =
b10111000 -
#12000000
0!
06
0/
0+
0'
#12100000
1!
16
1/
1+
1'
b11001100 ?
b10110001 )
b10110001 =
b11001100 -
#12200000
0!
06
0/
0+
0'
#12300000
1!
16
1/
1+
1'
b10110001 ?
b10001000 )
b10001000 =
b10110001 -
#12400000
0!
06
0/
0+
0'
#12500000
1!
16
1/
1+
1'
b10001000 ?
b11011 )
b11011 =
b10001000 -
#12600000
0!
06
0/
0+
0'
#12700000
1!
16
1/
1+
1'
b11011 ?
b1111101 )
b1111101 =
b11011 -
#12800000
0!
06
0/
0+
0'
#12900000
1!
16
1/
1+
1'
b1111101 ?
b1110110 )
b1110110 =
b1111101 -
#13000000
0!
06
0/
0+
0'
#13100000
1!
16
1/
1+
1'
b1110110 ?
b10111101 )
b10111101 =
b1110110 -
#13200000
0!
06
0/
0+
0'
#13300000
1!
16
1/
1+
1'
b10111101 ?
b10100000 )
b10100000 =
b10111101 -
#13400000
0!
06
0/
0+
0'
#13500000
1!
16
1/
1+
1'
b10100000 ?
b1101011 )
b1101011 =
b10100000 -
#13600000
0!
06
0/
0+
0'
#13700000
1!
16
1/
1+
1'
b1101011 ?
b10110110 )
b10110110 =
b1101011 -
#13800000
0!
06
0/
0+
0'
#13900000
1!
16
1/
1+
1'
b10110110 ?
b11111000 )
b11111000 =
b10110110 -
#14000000
0!
06
0/
0+
0'
#14100000
1!
16
1/
1+
1'
b11111000 ?
b10100010 )
b10100010 =
b11111000 -
#14200000
0!
06
0/
0+
0'
#14300000
1!
16
1/
1+
1'
b10100010 ?
b11000111 )
b11000111 =
b10100010 -
#14400000
0!
06
0/
0+
0'
#14500000
1!
16
1/
1+
1'
b11000111 ?
b1110100 )
b1110100 =
b11000111 -
#14600000
0!
06
0/
0+
0'
#14700000
1!
16
1/
1+
1'
b1110100 ?
b1101111 )
b1101111 =
b1110100 -
#14800000
0!
06
0/
0+
0'
#14900000
1!
16
1/
1+
1'
b1101111 ?
b0 )
b0 =
b1101111 -
#15000000
0!
06
0/
0+
0'
#15100000
1!
16
1/
1+
1'
b0 ?
b10010001 )
b10010001 =
b0 -
#15200000
0!
06
0/
0+
0'
#15300000
1!
16
1/
1+
1'
b10010001 ?
b10001101 )
b10001101 =
b10010001 -
#15400000
0!
06
0/
0+
0'
#15500000
1!
16
1/
1+
1'
b10001101 ?
b11101101 )
b11101101 =
b10001101 -
#15600000
0!
06
0/
0+
0'
#15700000
1!
16
1/
1+
1'
b11101101 ?
b11000001 )
b11000001 =
b11101101 -
#15800000
0!
06
0/
0+
0'
#15900000
1!
16
1/
1+
1'
b11000001 ?
b10110110 )
b10110110 =
b11000001 -
#16000000
0!
06
0/
0+
0'
#16100000
1!
16
1/
1+
1'
b10110110 ?
b10110010 )
b10110010 =
b10110110 -
#16200000
0!
06
0/
0+
0'
#16300000
1!
16
1/
1+
1'
b10110010 ?
b10101011 )
b10101011 =
b10110010 -
#16400000
0!
06
0/
0+
0'
#16500000
1!
16
1/
1+
1'
b10101011 ?
b11111100 )
b11111100 =
b10101011 -
#16600000
0!
06
0/
0+
0'
#16700000
1!
16
1/
1+
1'
b11111100 ?
b10100100 )
b10100100 =
b11111100 -
#16800000
0!
06
0/
0+
0'
#16900000
1!
16
1/
1+
1'
b10100100 ?
b11001010 )
b11001010 =
b10100100 -
#17000000
0!
06
0/
0+
0'
#17100000
1!
16
1/
1+
1'
b11001010 ?
b10001101 )
b10001101 =
b11001010 -
#17200000
0!
06
0/
0+
0'
#17300000
1!
16
1/
1+
1'
b10001101 ?
b1101010 )
b1101010 =
b10001101 -
#17400000
0!
06
0/
0+
0'
#17500000
1!
16
1/
1+
1'
b1101010 ?
b10111001 )
b10111001 =
b1101010 -
#17600000
0!
06
0/
0+
0'
#17700000
1!
16
1/
1+
1'
b10111001 ?
b10011010 )
b10011010 =
b10111001 -
#17800000
0!
06
0/
0+
0'
#17900000
1!
16
1/
1+
1'
b10011010 ?
b10010 )
b10010 =
b10011010 -
#18000000
0!
06
0/
0+
0'
#18100000
1!
16
1/
1+
1'
b10010 ?
b10001 )
b10001 =
b10010 -
#18200000
0!
06
0/
0+
0'
#18300000
1!
16
1/
1+
1'
b10001 ?
b100111 )
b100111 =
b10001 -
#18400000
0!
06
0/
0+
0'
#18500000
1!
16
1/
1+
1'
b100111 ?
b1010 )
b1010 =
b100111 -
#18600000
0!
06
0/
0+
0'
#18700000
1!
16
1/
1+
1'
b1010 ?
b0 )
b0 =
b1010 -
#18800000
0!
06
0/
0+
0'
#18900000
1!
16
1/
1+
1'
b0 ?
b1010010 )
b1010010 =
b0 -
#19000000
0!
06
0/
0+
0'
#19100000
1!
16
1/
1+
1'
b1010010 ?
b11111100 )
b11111100 =
b1010010 -
#19200000
0!
06
0/
0+
0'
#19300000
1!
16
1/
1+
1'
b11111100 ?
b10010110 )
b10010110 =
b11111100 -
#19400000
0!
06
0/
0+
0'
#19500000
1!
16
1/
1+
1'
b10010110 ?
b11100110 )
b11100110 =
b10010110 -
#19600000
0!
06
0/
0+
0'
#19700000
1!
16
1/
1+
1'
b11100110 ?
b11001001 )
b11001001 =
b11100110 -
#19800000
0!
06
0/
0+
0'
#19900000
1!
16
1/
1+
1'
b11001001 ?
b110011 )
b110011 =
b11001001 -
#20000000
0!
06
0/
0+
0'
#20100000
1!
16
1/
1+
1'
b110011 ?
b111110 )
b111110 =
b110011 -
#20200000
0!
06
0/
0+
0'
#20300000
1!
16
1/
1+
1'
b111110 ?
b1110101 )
b1110101 =
b111110 -
#20400000
0!
06
0/
0+
0'
#20500000
1!
16
1/
1+
1'
b1110101 ?
b110 )
b110 =
b1110101 -
#20600000
0!
06
0/
0+
0'
#20700000
1!
16
1/
1+
1'
b110 ?
b1110000 )
b1110000 =
b110 -
#20800000
0!
06
0/
0+
0'
#20900000
1!
16
1/
1+
1'
b1110000 ?
b10001011 )
b10001011 =
b1110000 -
#21000000
0!
06
0/
0+
0'
#21100000
1!
16
1/
1+
1'
b10001011 ?
b10101110 )
b10101110 =
b10001011 -
#21200000
0!
06
0/
0+
0'
#21300000
1!
16
1/
1+
1'
b10101110 ?
b1100101 )
b1100101 =
b10101110 -
#21400000
0!
06
0/
0+
0'
#21500000
1!
16
1/
1+
1'
b1100101 ?
b101101 )
b101101 =
b1100101 -
#21600000
0!
06
0/
0+
0'
#21700000
1!
16
1/
1+
1'
b101101 ?
b1010101 )
b1010101 =
b101101 -
#21800000
0!
06
0/
0+
0'
#21900000
1!
16
1/
1+
1'
b1010101 ?
b11111110 )
b11111110 =
b1010101 -
#22000000
0!
06
0/
0+
0'
#22100000
1!
16
1/
1+
1'
b11111110 ?
b10010010 )
b10010010 =
b11111110 -
#22200000
0!
06
0/
0+
0'
#22300000
1!
16
1/
1+
1'
b10010010 ?
b1100110 )
b1100110 =
b10010010 -
#22400000
0!
06
0/
0+
0'
#22500000
1!
16
1/
1+
1'
b1100110 ?
b100011 )
b100011 =
b1100110 -
#22600000
0!
06
0/
0+
0'
#22700000
1!
16
1/
1+
1'
b100011 ?
b101101 )
b101101 =
b100011 -
#22800000
0!
06
0/
0+
0'
#22900000
1!
16
1/
1+
1'
b101101 ?
b10100011 )
b10100011 =
b101101 -
#23000000
0!
06
0/
0+
0'
#23100000
1!
16
1/
1+
1'
b10100011 ?
b10010 )
b10010 =
b10100011 -
#23200000
0!
06
0/
0+
0'
#23300000
1!
16
1/
1+
1'
b10010 ?
b10000100 )
b10000100 =
b10010 -
#23400000
0!
06
0/
0+
0'
#23500000
1!
16
1/
1+
1'
b10000100 ?
b1100000 )
b1100000 =
b10000100 -
#23600000
0!
06
0/
0+
0'
#23700000
1!
16
1/
1+
1'
b1100000 ?
b10100101 )
b10100101 =
b1100000 -
#23800000
0!
06
0/
0+
0'
#23900000
1!
16
1/
1+
1'
b10100101 ?
b1011010 )
b1011010 =
b10100101 -
#24000000
0!
06
0/
0+
0'
#24100000
1!
16
1/
1+
1'
b1011010 ?
b11001100 )
b11001100 =
b1011010 -
#24200000
0!
06
0/
0+
0'
#24300000
1!
16
1/
1+
1'
b11001100 ?
b1100 )
b1100 =
b11001100 -
#24400000
0!
06
0/
0+
0'
#24500000
1!
16
1/
1+
1'
b1100 ?
b10000 )
b10000 =
b1100 -
#24600000
0!
06
0/
0+
0'
#24700000
1!
16
1/
1+
1'
b10000 ?
b1000 )
b1000 =
b10000 -
#24800000
0!
06
0/
0+
0'
#24900000
1!
16
1/
1+
1'
b1000 ?
b10011110 )
b10011110 =
b1000 -
#25000000
0!
06
0/
0+
0'
#25100000
1!
16
1/
1+
1'
b10011110 ?
b1010111 )
b1010111 =
b10011110 -
#25200000
0!
06
0/
0+
0'
#25300000
1!
16
1/
1+
1'
b1010111 ?
b10110 )
b10110 =
b1010111 -
#25400000
0!
06
0/
0+
0'
#25500000
1!
16
1/
1+
1'
b10110 ?
b10011011 )
b10011011 =
b10110 -
#25600000
0!
06
0/
0+
0'
#25700000
1!
16
1/
1+
1'
b10011011 ?
b10000001 )
b10000001 =
b10011011 -
#25800000
0!
06
0/
0+
0'
#25900000
1!
16
1/
1+
1'
b10000001 ?
b11000100 )
b11000100 =
b10000001 -
#26000000
0!
06
0/
0+
0'
#26100000
1!
16
1/
1+
1'
b11000100 ?
b10001000 )
b10001000 =
b11000100 -
#26200000
0!
06
0/
0+
0'
#26300000
1!
16
1/
1+
1'
b10001000 ?
b1000 )
b1000 =
b10001000 -
#26400000
0!
06
0/
0+
0'
#26500000
1!
16
1/
1+
1'
b1000 ?
b1000101 )
b1000101 =
b1000 -
#26600000
0!
06
0/
0+
0'
#26700000
1!
16
1/
1+
1'
b1000101 ?
b11111100 )
b11111100 =
b1000101 -
#26800000
0!
06
0/
0+
0'
#26900000
1!
16
1/
1+
1'
b11111100 ?
b111111 )
b111111 =
b11111100 -
#27000000
0!
06
0/
0+
0'
#27100000
1!
16
1/
1+
1'
b111111 ?
b11011100 )
b11011100 =
b111111 -
#27200000
0!
06
0/
0+
0'
#27300000
1!
16
1/
1+
1'
b11011100 ?
b10110011 )
b10110011 =
b11011100 -
#27400000
0!
06
0/
0+
0'
#27500000
1!
16
1/
1+
1'
b10110011 ?
b10011010 )
b10011010 =
b10110011 -
#27600000
0!
06
0/
0+
0'
#27700000
1!
16
1/
1+
1'
b10011010 ?
b11011100 )
b11011100 =
b10011010 -
#27800000
0!
06
0/
0+
0'
#27900000
1!
16
1/
1+
1'
b11011100 ?
b11000101 )
b11000101 =
b11011100 -
#28000000
0!
06
0/
0+
0'
#28100000
1!
16
1/
1+
1'
b11000101 ?
b11010111 )
b11010111 =
b11000101 -
#28200000
0!
06
0/
0+
0'
#28300000
1!
16
1/
1+
1'
b11010111 ?
b111000 )
b111000 =
b11010111 -
#28400000
0!
06
0/
0+
0'
#28500000
1!
16
1/
1+
1'
b111000 ?
b10010001 )
b10010001 =
b111000 -
#28600000
0!
06
0/
0+
0'
#28700000
1!
16
1/
1+
1'
b10010001 ?
b11110111 )
b11110111 =
b10010001 -
#28800000
0!
06
0/
0+
0'
#28900000
1!
16
1/
1+
1'
b11110111 ?
b11110111 -
#29000000
0!
06
0/
0+
0'
#29100000
1!
16
1/
1+
1'
b10111011 )
b10111011 =
#29200000
0!
06
0/
0+
0'
#29300000
1!
16
1/
1+
1'
b10111011 ?
b10110001 )
b10110001 =
b10111011 -
#29400000
0!
06
0/
0+
0'
#29500000
1!
16
1/
1+
1'
b10110001 ?
b111100 )
b111100 =
b10110001 -
#29600000
0!
06
0/
0+
0'
#29700000
1!
16
1/
1+
1'
b111100 ?
b1101011 )
b1101011 =
b111100 -
#29800000
0!
06
0/
0+
0'
#29900000
1!
16
1/
1+
1'
b1101011 ?
b10000101 )
b10000101 =
b1101011 -
#30000000
0!
06
0/
0+
0'
#30100000
1!
16
1/
1+
1'
b10000101 ?
b1000100 )
b1000100 =
b10000101 -
#30200000
0!
06
0/
0+
0'
#30300000
1!
16
1/
1+
1'
b1000100 ?
b1001100 )
b1001100 =
b1000100 -
#30400000
0!
06
0/
0+
0'
#30500000
1!
16
1/
1+
1'
b1001100 ?
b1000111 )
b1000111 =
b1001100 -
#30600000
0!
06
0/
0+
0'
#30700000
1!
16
1/
1+
1'
b1000111 ?
b11010101 )
b11010101 =
b1000111 -
#30800000
0!
06
0/
0+
0'
#30900000
1!
16
1/
1+
1'
b11010101 ?
b11110 )
b11110 =
b11010101 -
#31000000
0!
06
0/
0+
0'
#31100000
1!
16
1/
1+
1'
b11110 ?
b10001001 )
b10001001 =
b11110 -
#31200000
0!
06
0/
0+
0'
#31300000
1!
16
1/
1+
1'
b10001001 ?
b1000011 )
b1000011 =
b10001001 -
#31400000
0!
06
0/
0+
0'
#31500000
1!
16
1/
1+
1'
b1000011 ?
b1011110 )
b1011110 =
b1000011 -
#31600000
0!
06
0/
0+
0'
#31700000
1!
16
1/
1+
1'
b1011110 ?
b100001 )
b100001 =
b1011110 -
#31800000
0!
06
0/
0+
0'
#31900000
1!
16
1/
1+
1'
b100001 ?
b10011101 )
b10011101 =
b100001 -
#32000000
0!
06
0/
0+
0'
#32100000
1!
16
1/
1+
1'
b10011101 ?
b11111001 )
b11111001 =
b10011101 -
#32200000
0!
06
0/
0+
0'
#32300000
1!
16
1/
1+
1'
b11111001 ?
b10110100 )
b10110100 =
b11111001 -
#32400000
0!
06
0/
0+
0'
#32500000
1!
16
1/
1+
1'
b10110100 ?
b10011011 )
b10011011 =
b10110100 -
#32600000
0!
06
0/
0+
0'
#32700000
1!
16
1/
1+
1'
b10011011 ?
b11011011 )
b11011011 =
b10011011 -
#32800000
0!
06
0/
0+
0'
#32900000
1!
16
1/
1+
1'
b11011011 ?
b1111001 )
b1111001 =
b11011011 -
#33000000
0!
06
0/
0+
0'
#33100000
1!
16
1/
1+
1'
b1111001 ?
b11101 )
b11101 =
b1111001 -
#33200000
0!
06
0/
0+
0'
#33300000
1!
16
1/
1+
1'
b11101 ?
b10110111 )
b10110111 =
b11101 -
#33400000
0!
06
0/
0+
0'
#33500000
1!
16
1/
1+
1'
b10110111 ?
b1001110 )
b1001110 =
b10110111 -
#33600000
0!
06
0/
0+
0'
#33700000
1!
16
1/
1+
1'
b1001110 ?
b10111111 )
b10111111 =
b1001110 -
#33800000
0!
06
0/
0+
0'
#33900000
1!
16
1/
1+
1'
b10111111 ?
b10110111 )
b10110111 =
b10111111 -
#34000000
0!
06
0/
0+
0'
#34100000
1!
16
1/
1+
1'
b10110111 ?
b111001 )
b111001 =
b10110111 -
#34200000
0!
06
0/
0+
0'
#34300000
1!
16
1/
1+
1'
b111001 ?
b10111001 )
b10111001 =
b111001 -
#34400000
0!
06
0/
0+
0'
#34500000
1!
16
1/
1+
1'
b10111001 ?
b11011111 )
b11011111 =
b10111001 -
#34600000
0!
06
0/
0+
0'
#34700000
1!
16
1/
1+
1'
b11011111 ?
b101110 )
b101110 =
b11011111 -
#34800000
0!
06
0/
0+
0'
#34900000
1!
16
1/
1+
1'
b101110 ?
b10000001 )
b10000001 =
b101110 -
#35000000
0!
06
0/
0+
0'
#35100000
1!
16
1/
1+
1'
b10000001 ?
b1100001 )
b1100001 =
b10000001 -
#35200000
0!
06
0/
0+
0'
#35300000
1!
16
1/
1+
1'
b1100001 ?
b1001110 )
b1001110 =
b1100001 -
#35400000
0!
06
0/
0+
0'
#35500000
1!
16
1/
1+
1'
b1001110 ?
b111000 )
b111000 =
b1001110 -
#35600000
0!
06
0/
0+
0'
#35700000
1!
16
1/
1+
1'
b111000 ?
b1000111 )
b1000111 =
b111000 -
#35800000
0!
06
0/
0+
0'
#35900000
1!
16
1/
1+
1'
b1000111 ?
b11101100 )
b11101100 =
b1000111 -
#36000000
0!
06
0/
0+
0'
#36100000
1!
16
1/
1+
1'
b11101100 ?
b1000001 )
b1000001 =
b11101100 -
#36200000
0!
06
0/
0+
0'
#36300000
1!
16
1/
1+
1'
b1000001 ?
b11011100 )
b11011100 =
b1000001 -
#36400000
0!
06
0/
0+
0'
#36500000
1!
16
1/
1+
1'
b11011100 ?
b11000101 )
b11000101 =
b11011100 -
#36600000
0!
06
0/
0+
0'
#36700000
1!
16
1/
1+
1'
b11000101 ?
b10011001 )
b10011001 =
b11000101 -
#36800000
0!
06
0/
0+
0'
#36900000
1!
16
1/
1+
1'
b10011001 ?
b10001011 )
b10001011 =
b10011001 -
#37000000
0!
06
0/
0+
0'
#37100000
1!
16
1/
1+
1'
b10001011 ?
b101000 )
b101000 =
b10001011 -
#37200000
0!
06
0/
0+
0'
#37300000
1!
16
1/
1+
1'
b101000 ?
b11010100 )
b11010100 =
b101000 -
#37400000
0!
06
0/
0+
0'
#37500000
1!
16
1/
1+
1'
b11010100 ?
b10110111 )
b10110111 =
b11010100 -
#37600000
0!
06
0/
0+
0'
#37700000
1!
16
1/
1+
1'
b10110111 ?
b10011010 )
b10011010 =
b10110111 -
#37800000
0!
06
0/
0+
0'
#37900000
1!
16
1/
1+
1'
b10011010 ?
b1010 )
b1010 =
b10011010 -
#38000000
0!
06
0/
0+
0'
#38100000
1!
16
1/
1+
1'
b1010 ?
b111111 )
b111111 =
b1010 -
#38200000
0!
06
0/
0+
0'
#38300000
1!
16
1/
1+
1'
b111111 ?
b10100000 )
b10100000 =
b111111 -
#38400000
0!
06
0/
0+
0'
#38500000
1!
16
1/
1+
1'
b10100000 ?
b1000110 )
b1000110 =
b10100000 -
#38600000
0!
06
0/
0+
0'
#38700000
1!
16
1/
1+
1'
b1000110 ?
b10000101 )
b10000101 =
b1000110 -
#38800000
0!
06
0/
0+
0'
#38900000
1!
16
1/
1+
1'
b10000101 ?
b10101110 )
b10101110 =
b10000101 -
#39000000
0!
06
0/
0+
0'
#39100000
1!
16
1/
1+
1'
b10101110 ?
b1000010 )
b1000010 =
b10101110 -
#39200000
0!
06
0/
0+
0'
#39300000
1!
16
1/
1+
1'
b1000010 ?
b11011111 )
b11011111 =
b1000010 -
#39400000
0!
06
0/
0+
0'
#39500000
1!
16
1/
1+
1'
b11011111 ?
b10110010 )
b10110010 =
b11011111 -
#39600000
0!
06
0/
0+
0'
#39700000
1!
16
1/
1+
1'
b10110010 ?
b11010010 )
b11010010 =
b10110010 -
#39800000
0!
06
0/
0+
0'
#39900000
1!
16
1/
1+
1'
b11010010 ?
b11010 )
b11010 =
b11010010 -
#40000000
0!
06
0/
0+
0'
#40100000
1!
16
1/
1+
1'
b11010 ?
b11110111 )
b11110111 =
b11010 -
#40200000
0!
06
0/
0+
0'
#40300000
1!
16
1/
1+
1'
b11110111 ?
b1101101 )
b1101101 =
b11110111 -
#40400000
0!
06
0/
0+
0'
#40500000
1!
16
1/
1+
1'
b1101101 ?
b11001111 )
b11001111 =
b1101101 -
#40600000
0!
06
0/
0+
0'
#40700000
1!
16
1/
1+
1'
b11001111 ?
b1001100 )
b1001100 =
b11001111 -
#40800000
0!
06
0/
0+
0'
#40900000
1!
16
1/
1+
1'
b1001100 ?
b1100100 )
b1100100 =
b1001100 -
#41000000
0!
06
0/
0+
0'
#41100000
1!
16
1/
1+
1'
b1100100 ?
b11110011 )
b11110011 =
b1100100 -
#41200000
0!
06
0/
0+
0'
#41300000
1!
16
1/
1+
1'
b11110011 ?
b11011100 )
b11011100 =
b11110011 -
#41400000
0!
06
0/
0+
0'
#41500000
1!
16
1/
1+
1'
b11011100 ?
b11110110 )
b11110110 =
b11011100 -
#41600000
0!
06
0/
0+
0'
#41700000
1!
16
1/
1+
1'
b11110110 ?
b0 )
b0 =
b11110110 -
#41800000
0!
06
0/
0+
0'
#41900000
1!
16
1/
1+
1'
b0 ?
b11100111 )
b11100111 =
b0 -
#42000000
0!
06
0/
0+
0'
#42100000
1!
16
1/
1+
1'
b11100111 ?
b1100111 )
b1100111 =
b11100111 -
#42200000
0!
06
0/
0+
0'
#42300000
1!
16
1/
1+
1'
b1100111 ?
b10011010 )
b10011010 =
b1100111 -
#42400000
0!
06
0/
0+
0'
#42500000
1!
16
1/
1+
1'
b10011010 ?
b11000 )
b11000 =
b10011010 -
#42600000
0!
06
0/
0+
0'
#42700000
1!
16
1/
1+
1'
b11000 ?
b101 )
b101 =
b11000 -
#42800000
0!
06
0/
0+
0'
#42900000
1!
16
1/
1+
1'
b101 ?
b11101011 )
b11101011 =
b101 -
#43000000
0!
06
0/
0+
0'
#43100000
1!
16
1/
1+
1'
b11101011 ?
b1111111 )
b1111111 =
b11101011 -
#43200000
0!
06
0/
0+
0'
#43300000
1!
16
1/
1+
1'
b1111111 ?
b1011101 )
b1011101 =
b1111111 -
#43400000
0!
06
0/
0+
0'
#43500000
1!
16
1/
1+
1'
b1011101 ?
b10101011 )
b10101011 =
b1011101 -
#43600000
0!
06
0/
0+
0'
#43700000
1!
16
1/
1+
1'
b10101011 ?
b11011110 )
b11011110 =
b10101011 -
#43800000
0!
06
0/
0+
0'
#43900000
1!
16
1/
1+
1'
b11011110 ?
b10110011 )
b10110011 =
b11011110 -
